\relax 
\providecommand\hyper@newdestlabel[2]{}
\providecommand\babel@aux[2]{}
\@nameuse{bbl@beforestart}
\providecommand\HyperFirstAtBeginDocument{\AtBeginDocument}
\HyperFirstAtBeginDocument{\ifx\hyper@anchor\@undefined
\global\let\oldcontentsline\contentsline
\gdef\contentsline#1#2#3#4{\oldcontentsline{#1}{#2}{#3}}
\global\let\oldnewlabel\newlabel
\gdef\newlabel#1#2{\newlabelxx{#1}#2}
\gdef\newlabelxx#1#2#3#4#5#6{\oldnewlabel{#1}{{#2}{#3}}}
\AtEndDocument{\ifx\hyper@anchor\@undefined
\let\contentsline\oldcontentsline
\let\newlabel\oldnewlabel
\fi}
\fi}
\global\let\hyper@last\relax 
\gdef\HyperFirstAtBeginDocument#1{#1}
\providecommand\HyField@AuxAddToFields[1]{}
\providecommand\HyField@AuxAddToCoFields[2]{}
\babel@aux{greek}{}
\@writefile{toc}{\contentsline {section}{\numberline {1}Εισαγωγή}{1}{section.1}\protected@file@percent }
\@writefile{toc}{\contentsline {section}{\numberline {2}Κωδικοποιητής}{1}{section.2}\protected@file@percent }
\@writefile{lof}{\contentsline {figure}{\numberline {1}{\ignorespaces Λειτουργικό διάγραμμα κωδικοποιητή\relax }}{1}{figure.caption.1}\protected@file@percent }
\providecommand*\caption@xref[2]{\@setref\relax\@undefined{#1}}
\newlabel{coder}{{1}{1}{Λειτουργικό διάγραμμα κωδικοποιητή\relax }{figure.caption.1}{}}
\@writefile{toc}{\contentsline {subsection}{\numberline {2.1}Preprocessing}{2}{subsection.2.1}\protected@file@percent }
\@writefile{lol}{\contentsline {lstlisting}{Matlab code/Pre\textendash processing/offset\textunderscore compensation.m}{2}{lstlisting.-1}\protected@file@percent }
\@writefile{lol}{\contentsline {lstlisting}{Matlab code/Pre\textendash processing/preemphasis.m}{2}{lstlisting.-2}\protected@file@percent }
\@writefile{toc}{\contentsline {subsection}{\numberline {2.2}Short Term Analysis}{2}{subsection.2.2}\protected@file@percent }
\@writefile{lol}{\contentsline {lstlisting}{Matlab code/Short\textendash term\textendash filtering/prediction\textunderscore error.m}{3}{lstlisting.-3}\protected@file@percent }
\@writefile{lol}{\contentsline {lstlisting}{Matlab code/Short\textendash term\textendash filtering/rc2lar.m}{4}{lstlisting.-4}\protected@file@percent }
\@writefile{lol}{\contentsline {lstlisting}{Matlab code/Short\textendash term\textendash filtering/lar\textunderscore quant.m}{4}{lstlisting.-5}\protected@file@percent }
\@writefile{lol}{\contentsline {lstlisting}{Matlab code/Short\textendash term\textendash filtering/lar\textunderscore dec.m}{4}{lstlisting.-6}\protected@file@percent }
\@writefile{lof}{\contentsline {figure}{\numberline {2}{\ignorespaces Λειτουργικό διάγραμμα ST coder\relax }}{5}{figure.caption.2}\protected@file@percent }
\newlabel{ST_coder}{{2}{5}{Λειτουργικό διάγραμμα ST coder\relax }{figure.caption.2}{}}
\@writefile{toc}{\contentsline {subsection}{\numberline {2.3}Long Term Analysis}{5}{subsection.2.3}\protected@file@percent }
\@writefile{lof}{\contentsline {figure}{\numberline {3}{\ignorespaces Λειτουργικό διάγραμμα LT coder\relax }}{6}{figure.caption.3}\protected@file@percent }
\newlabel{LT_coder}{{3}{6}{Λειτουργικό διάγραμμα LT coder\relax }{figure.caption.3}{}}
\@writefile{toc}{\contentsline {subsubsection}{\numberline {2.3.1}Εκτίμηση}{6}{subsubsection.2.3.1}\protected@file@percent }
\@writefile{lol}{\contentsline {lstlisting}{Matlab code/Long\textendash term\textendash filtering/subfunctionA.m}{6}{lstlisting.-7}\protected@file@percent }
\@writefile{toc}{\contentsline {subsubsection}{\numberline {2.3.2}Πρόβλεψη}{8}{subsubsection.2.3.2}\protected@file@percent }
\@writefile{lol}{\contentsline {lstlisting}{Matlab code/Long\textendash term\textendash filtering/subfunctionB.m}{8}{lstlisting.-8}\protected@file@percent }
\@writefile{toc}{\contentsline {subsubsection}{\numberline {2.3.3}Σχηματισμός ακολουθίας διέγερσης}{9}{subsubsection.2.3.3}\protected@file@percent }
\@writefile{lol}{\contentsline {lstlisting}{Matlab code/Long\textendash term\textendash filtering/Subfunction C/subfunctionC.m}{9}{lstlisting.-9}\protected@file@percent }
\@writefile{toc}{\contentsline {subsubsection}{\numberline {2.3.4}Σύνθεση των short term residual}{10}{subsubsection.2.3.4}\protected@file@percent }
\newlabel{sec:subfunctionD}{{2.3.4}{10}{Σύνθεση των short term residual}{subsubsection.2.3.4}{}}
\@writefile{lol}{\contentsline {lstlisting}{Matlab code/Long\textendash term\textendash filtering/subfunctionD.m}{10}{lstlisting.-10}\protected@file@percent }
\@writefile{toc}{\contentsline {subsection}{\numberline {2.4}Compose Frame}{12}{subsection.2.4}\protected@file@percent }
\@writefile{toc}{\contentsline {section}{\numberline {3}Αποκωδικοποιητής}{12}{section.3}\protected@file@percent }
\newlabel{eq:filter}{{1}{13}{Αποκωδικοποιητής}{equation.3.1}{}}
\@writefile{lol}{\contentsline {lstlisting}{Matlab code/Post\textendash processing/post\textunderscore processing.m}{13}{lstlisting.-11}\protected@file@percent }
\@writefile{toc}{\contentsline {section}{\numberline {4}Αποτελέσματα Αναλύσεων}{13}{section.4}\protected@file@percent }
\@writefile{toc}{\contentsline {subsection}{\numberline {4.1}Μέρος Πρώτο}{13}{subsection.4.1}\protected@file@percent }
\@writefile{lof}{\contentsline {figure}{\numberline {4}{\ignorespaces Αρχικό - Επεξεργασμένο σήμα\relax }}{13}{figure.caption.4}\protected@file@percent }
\newlabel{fig:pp}{{4}{13}{Αρχικό - Επεξεργασμένο σήμα\relax }{figure.caption.4}{}}
\@writefile{lof}{\contentsline {figure}{\numberline {5}{\ignorespaces Αρχικό - Επεξεργασμένο σήμα\relax }}{14}{figure.caption.5}\protected@file@percent }
\@writefile{lof}{\contentsline {figure}{\numberline {6}{\ignorespaces Αρχικό - Επεξεργασμένο σήμα\relax }}{14}{figure.caption.6}\protected@file@percent }
\@writefile{toc}{\contentsline {subsection}{\numberline {4.2}Μέρος Δεύτερο}{14}{subsection.4.2}\protected@file@percent }
\@writefile{lof}{\contentsline {figure}{\numberline {7}{\ignorespaces Αρχικό - Επεξεργασμένο σήμα\relax }}{15}{figure.caption.7}\protected@file@percent }
\@writefile{lof}{\contentsline {figure}{\numberline {8}{\ignorespaces Αρχικό - Επεξεργασμένο σήμα\relax }}{15}{figure.caption.8}\protected@file@percent }
\@writefile{lof}{\contentsline {figure}{\numberline {9}{\ignorespaces Αρχικό - Επεξεργασμένο σήμα\relax }}{15}{figure.caption.9}\protected@file@percent }
\@writefile{lof}{\contentsline {figure}{\numberline {10}{\ignorespaces Σήμα πρώτου μέρους - Σήμα δεύτερου μέρους\relax }}{16}{figure.caption.10}\protected@file@percent }
\newlabel{fig:koino_sima}{{10}{16}{Σήμα πρώτου μέρους - Σήμα δεύτερου μέρους\relax }{figure.caption.10}{}}
\@writefile{toc}{\contentsline {subsection}{\numberline {4.3}Μέρος τρίτο}{16}{subsection.4.3}\protected@file@percent }
\@writefile{lof}{\contentsline {figure}{\numberline {11}{\ignorespaces Αρχικό - Επεξεργασμένο σήμα\relax }}{16}{figure.caption.11}\protected@file@percent }
\@writefile{lof}{\contentsline {figure}{\numberline {12}{\ignorespaces Αρχικό - Επεξεργασμένο σήμα\relax }}{17}{figure.caption.12}\protected@file@percent }
\@writefile{lof}{\contentsline {figure}{\numberline {13}{\ignorespaces Αρχικό - Επεξεργασμένο σήμα\relax }}{17}{figure.caption.13}\protected@file@percent }
\gdef \@abspage@last{17}
